{
  "_class" : "hudson.matrix.MatrixProject",
  "actions" : [
    {
      
    },
    {
      
    },
    {
      "_class" : "com.cloudbees.plugins.credentials.ViewCredentialsAction"
    }
  ],
  "description" : "",
  "displayName" : "gmail-forTestOnCute",
  "displayNameOrNull" : null,
  "fullDisplayName" : "gmail-forTestOnCute",
  "fullName" : "gmail-forTestOnCute",
  "name" : "gmail-forTestOnCute",
  "url" : "http://localhost:8080/job/gmail-forTestOnCute/",
  "buildable" : true,
  "builds" : [
    {
      "_class" : "hudson.matrix.MatrixBuild",
      "number" : 7,
      "url" : "http://localhost:8080/job/gmail-forTestOnCute/7/"
    },
    {
      "_class" : "hudson.matrix.MatrixBuild",
      "number" : 6,
      "url" : "http://localhost:8080/job/gmail-forTestOnCute/6/"
    },
    {
      "_class" : "hudson.matrix.MatrixBuild",
      "number" : 5,
      "url" : "http://localhost:8080/job/gmail-forTestOnCute/5/"
    },
    {
      "_class" : "hudson.matrix.MatrixBuild",
      "number" : 4,
      "url" : "http://localhost:8080/job/gmail-forTestOnCute/4/"
    },
    {
      "_class" : "hudson.matrix.MatrixBuild",
      "number" : 3,
      "url" : "http://localhost:8080/job/gmail-forTestOnCute/3/"
    },
    {
      "_class" : "hudson.matrix.MatrixBuild",
      "number" : 2,
      "url" : "http://localhost:8080/job/gmail-forTestOnCute/2/"
    },
    {
      "_class" : "hudson.matrix.MatrixBuild",
      "number" : 1,
      "url" : "http://localhost:8080/job/gmail-forTestOnCute/1/"
    }
  ],
  "color" : "blue",
  "firstBuild" : {
    "_class" : "hudson.matrix.MatrixBuild",
    "number" : 1,
    "url" : "http://localhost:8080/job/gmail-forTestOnCute/1/"
  },
  "healthReport" : [
    {
      "description" : "Stabilità compilazioni: Nessuna compilazione recente non riuscita.",
      "iconClassName" : "icon-health-80plus",
      "iconUrl" : "health-80plus.png",
      "score" : 100
    }
  ],
  "inQueue" : false,
  "keepDependencies" : false,
  "lastBuild" : {
    "_class" : "hudson.matrix.MatrixBuild",
    "number" : 7,
    "url" : "http://localhost:8080/job/gmail-forTestOnCute/7/"
  },
  "lastCompletedBuild" : {
    "_class" : "hudson.matrix.MatrixBuild",
    "number" : 7,
    "url" : "http://localhost:8080/job/gmail-forTestOnCute/7/"
  },
  "lastFailedBuild" : null,
  "lastStableBuild" : {
    "_class" : "hudson.matrix.MatrixBuild",
    "number" : 7,
    "url" : "http://localhost:8080/job/gmail-forTestOnCute/7/"
  },
  "lastSuccessfulBuild" : {
    "_class" : "hudson.matrix.MatrixBuild",
    "number" : 7,
    "url" : "http://localhost:8080/job/gmail-forTestOnCute/7/"
  },
  "lastUnstableBuild" : null,
  "lastUnsuccessfulBuild" : null,
  "nextBuildNumber" : 8,
  "property" : [
    
  ],
  "queueItem" : null,
  "concurrentBuild" : false,
  "downstreamProjects" : [
    
  ],
  "scm" : {
    "_class" : "hudson.scm.NullSCM"
  },
  "upstreamProjects" : [
    
  ],
  "activeConfigurations" : [
    {
      "name" : "default",
      "url" : "http://localhost:8080/job/gmail-forTestOnCute/default/",
      "color" : "blue"
    }
  ]
}